{
    "name": "Shell Configurator",
    "description": "Configure and customize GNOME Shell with advanced settings.",
    "uuid": "shell-configurator@adeswanta",
    "shell-version": [ "3.36", "3.38", "40", "41", "42" ],
    "url": "https://gitlab.com/adeswantaTechs/shell-configurator",
    "version": 5,
    "gettext-domain": "shell-configurator",
    "install-type": "user",
    "release-state": "stable",
    "codename": "Whitesmoke"
}